Biostats Cheat Sheet
…
[1] "Fair"      "Good"      "Very Good" "Premium"   "Ideal"    

# View the non-repeating unique values
unique(diamonds$cut)

[1] Ideal     Premium   Good      Very Good Fair     
Levels: Fair < Good < Very Good < Premium < Ideal

6.2 Choosing the data we want

# Only selects the variables chosen
diamonds |> 
  select(cut, color)

# A tibble: 53,940 × 2
   cut       color
   <ord>     <ord>
 1 Ideal     E    
 2 Premium   E    
 3 Good      E    
 4 Premium   I    
 5 Good      J    
 6 Very Good J    
 7 Very Good I    
 8 Very Good H    
 9 Fair      E    
10 Very Good H    
# ℹ 53,930 more rows

# Only considers observations which meet the criteria specified
diamonds |> 
  filter(color == "D", carat >= mean(carat))

# A tibble: 2,000 × 10
   carat cut       color clarity depth table price     x     y     z
   <dbl> <ord>     <ord> <ord>   <dbl> <dbl> <int> <dbl> <dbl> <dbl>
 1  0.91 Ideal     D     SI2      62.2    57  2803  6.21  6.15  3.85
 2  0.81 Premium   D     SI2      59.2    57  2809  6.15  6.05  3.61
 3  0.83 Very Good D     SI1      63.5    54  2811  5.98  5.95  3.79
 4  0.92 Ideal     D     SI2      61.9    56  2840  6.27  6.2   3.86
 5  0.8  Very Good D     SI2      62.5    59  2862  5.88  5.92  3.69
 6  1.08 Premium   D     I1       61.9    60  2869  6.55  6.48  4.03
 7  0.9  Fair      D     SI2      66.9    57  2885  6.02  5.9   3.99
 8  0.83 Very Good D     SI2      63.1    57  2918  5.95  5.9   3.74
 9  0.8  Very Good D     SI1      58.2    63  2925  6.07  6.03  3.52
10  0.81 Good      D     SI2      63.6    55  2926  5.91  5.86  3.74
# ℹ 1,990 more rows
…
# Shows the different levels of the cut variable. The order here matters. 
levels(diamonds2$cut)

[1] "Fair"      "Good"      "Very Good" "Premium"   "Ideal"    

# Changing the levels and labels of the cut variable. The order here matters.
diamonds2 <- diamonds2 |> 
  mutate(cut = factor(cut,
                      levels = c("Fair", "Good", "Very Good", "Ideal", "Premium"),
                      labels = c("Gross", "Icky", "Okay-ish", "Meh", "Sparkly")))

diamonds2

# A tibble: 53,940 × 10
   carat cut      color clarity depth table price     x     y     z
   <dbl> <ord>    <ord> <ord>   <dbl> <dbl> <int> <dbl> <dbl> <dbl>
 1  0.23 Meh      E     SI2      61.5    55   326  3.95  3.98  2.43
 2  0.21 Sparkly  E     SI1      59.8    61   326  3.89  3.84  2.31
 3  0.23 Icky     E     VS1      56.9    65   327  4.05  4.07  2.31
 4  0.29 Sparkly  I     VS2      62.4    58   334  4.2   4.23  2.63
 5  0.31 Icky     J     SI2      63.3    58   335  4.34  4.35  2.75
 6  0.24 Okay-ish J     VVS2     62.8    57   336  3.94  3.96  2.48
 7  0.24 Okay-ish I     VVS1     62.3    57   336  3.95  3.98  2.47
 8  0.26 Okay-ish H     SI1      61.9    55   337  4.07  4.11  2.53
 9  0.22 Gross    E     VS2      65.1    61   337  3.87  3.78  2.49
10  0.23 Okay-ish H     VS1      59.4    61   338  4     4.05  2.39
# ℹ 53,930 more rows

7.2 Renaming columns

# Rename variables by defining the new name first, then the old
diamonds2 |> 
  rename("slice" = "cut")

# A tibble: 53,940 × 10
   carat slice    color clarity depth table price     x     y     z
   <dbl> <ord>    <ord> <ord>   <dbl> <dbl> <int> <dbl> <dbl> <dbl>
 1  0.23 Meh      E     SI2      61.5    55   326  3.95  3.98  2.43
 2  0.21 Sparkly  E     SI1      59.8    61   326  3.89  3.84  2.31
 3  0.23 Icky     E     VS1      56.9    65   327  4.05  4.07  2.31
 4  0.29 Sparkly  I     VS2      62.4    58   334  4.2   4.23  2.63
 5  0.31 Icky     J     SI2      63.3    58   335  4.34  4.35  2.75
 6  0.24 Okay-ish J     VVS2     62.8    57   336  3.94  3.96  2.48
 7  0.24 Okay-ish I     VVS1     62.3    57   336  3.95  3.98  2.47
 8  0.26 Okay-ish H     SI1      61.9    55   337  4.07  4.11  2.53
 9  0.22 Gross    E     VS2      65.1    61   337  3.87  3.78  2.49
10  0.23 Okay-ish H     VS1      59.4    61   338  4     4.05  2.39
# ℹ 53,930 more rows

7.3 Reordering columns

# The select function will always pull variables in the order you define
diamonds2 |> 
  select(cut, clarity, everything())

# A tibble: 53,940 × 10
   cut      clarity carat color depth table price     x     y     z
   <ord>    <ord>   <dbl> <ord> <dbl> <dbl> <int> <dbl> <dbl> <dbl>
 1 Meh      SI2      0.23 E      61.5    55   326  3.95  3.98  2.43
 2 Sparkly  SI1      0.21 E      59.8    61   326  3.89  3.84  2.31
 3 Icky     VS1      0.23 E      56.9    65   327  4.05  4.07  2.31
 4 Sparkly  VS2      0.29 I      62.4    58   334  4.2   4.23  2.63
 5 Icky     SI2      0.31 J      63.3    58   335  4.34  4.35  2.75
 6 Okay-ish VVS2     0.24 J      62.8    57   336  3.94  3.96  2.48
 7 Okay-ish VVS1     0.24 I      62.3    57   336  3.95  3.98  2.47
 8 Okay-ish SI1      0.26 H      61.9    55   337  4.07  4.11  2.53
 9 Gross    VS2      0.22 E      65.1    61   337  3.87  3.78  2.49
10 Okay-ish VS1      0.23 H      59.4    61   338  4     4.05  2.39
# ℹ 53,930 more rows

7.4 Selecting, Filtering, and Arranging

# You can combine selecting, filtering, and arranging using pipes
diamonds2 |> 
  select(cut, price) |> 
  filter(cut == "Okay-ish") |> 
  arrange(desc(price))

# A tibble: 12,082 × 2
   cut      price
   <ord>    <int>
 1 Okay-ish 18818
 2 Okay-ish 18803
 3 Okay-ish 18781
 4 Okay-ish 18777
 5 Okay-ish 18759
 6 Okay-ish 18741
 7 Okay-ish 18731
 8 Okay-ish 18709
 9 Okay-ish 18692
10 Okay-ish 18691
# ℹ 12,072 more rows

7.5 Re-coding values

# Recoding values can change the value to something more useful
diamonds2$color <- diamonds2$color |> 
  recode("E" = "blue")

diamonds2

# A tibble: 53,940 × 10
   carat cut      color clarity depth table price     x     y     z
   <dbl> <ord>    <ord> <ord>   <dbl> <dbl> <int> <dbl> <dbl> <dbl>
 1  0.23 Meh      blue  SI2      61.5    55   326  3.95  3.98  2.43
 2  0.21 Sparkly  blue  SI1      59.8    61   326  3.89  3.84  2.31
 3  0.23 Icky     blue  VS1      56.9    65   327  4.05  4.07  2.31
 4  0.29 Sparkly  I     VS2      62.4    58   334  4.2   4.23  2.63
 5  0.31 Icky     J     SI2      63.3    58   335  4.34  4.35  2.75
 6  0.24 Okay-ish J     VVS2     62.8    57   336  3.94  3.96  2.48
 7  0.24 Okay-ish I     VVS1     62.3    57   336  3.95  3.98  2.47
 8  0.26 Okay-ish H     SI1      61.9    55   337  4.07  4.11  2.53
 9  0.22 Gross    blue  VS2      65.1    61   337  3.87  3.78  2.49
10  0.23 Okay-ish H     VS1      59.4    61   338  4     4.05  2.39
# ℹ 53,930 more rows

7.6 Changing data with mutate

# Mutate can create a new variable, or change an existing one
diamonds2 |> 
  mutate(carrot = carat) |> 
  mutate(carat = mean(carat))

# A tibble: 53,940 × 11
   carat cut      color clarity depth table price     x     y     z carrot
   <dbl> <ord>    <ord> <ord>   <dbl> <dbl> <int> <dbl> <dbl> <dbl>  <dbl>
 1 0.798 Meh      blue  SI2      61.5    55   326  3.95  3.98  2.43   0.23
 2 0.798 Sparkly  blue  SI1      59.8    61   326  3.89  3.84  2.31   0.21
 3 0.798 Icky     blue  VS1      56.9    65   327  4.05  4.07  2.31   0.23
 4 0.798 Sparkly  I     VS2      62.4    58   334  4.2   4.23  2.63   0.29
 5 0.798 Icky     J     SI2      63.3    58   335  4.34  4.35  2.75   0.31
 6 0.798 Okay-ish J     VVS2     62.8    57   336  3.94  3.96  2.48   0.24
 7 0.798 Okay-ish I     VVS1     62.3    57   336  3.95  3.98  2.47   0.24
 8 0.798 Okay-ish H     SI1      61.9    55   337  4.07  4.11  2.53   0.26
 9 0.798 Gross    blue  VS2      65.1    61   337  3.87  3.78  2.49   0.22
10 0.798 Okay-ish H     VS1      59.4    61   338  4     4.05  2.39   0.23
# ℹ 53,930 more rows

# Mutate can be combined with other functions to make life easier
diamonds2 |> 
  mutate(across(where(is.numeric), mean))

# A tibble: 53,940 × 10
   carat cut      color clarity depth table price     x     y     z
   <dbl> <ord>    <ord> <ord>   <dbl> <dbl> <dbl> <dbl> <dbl> <dbl>
 1 0.798 Meh      blue  SI2      61.7  57.5 3933.  5.73  5.73  3.54
 2 0.798 Sparkly  blue  SI1      61.7  57.5 3933.  5.73  5.73  3.54
 3 0.798 Icky     blue  VS1      61.7  57.5 3933.  5.73  5.73  3.54
 4 0.798 Sparkly  I     VS2      61.7  57.5 3933.  5.73  5.73  3.54
 5 0.798 Icky     J     SI2      61.7  57.5 3933.  5.73  5.73  3.54
 6 0.798 Okay-ish J     VVS2     61.7  57.5 3933.  5.73  5.73  3.54
 7 0.798 Okay-ish I     VVS1     61.7  57.5 3933.  5.73  5.73  3.54
 8 0.798 Okay-ish H     SI1      61.7  57.5 3933.  5.73  5.73  3.54
 9 0.798 Gross    blue  VS2      61.7  57.5 3933.  5.73  5.73  3.54
10 0.798 Okay-ish H     VS1      61.7  57.5 3933.  5.73  5.73  3.54
# ℹ 53,930 more rows

7.7 Conditional changes with ifelse

“ifelse” takes a condition you define as the “test” argument, and if the value meets those conditions it alters the value as you define it with the “yes” argument. If the value does not meet those conditions, it alters the value based upon how you defined the “no” argument.

diamonds2 |> 
   mutate(price = (ifelse(
     test = price >= median(price), 
     yes = "Can't Afford", 
     no = "Still Can't Afford")))

# A tibble: 53,940 × 10
   carat cut      color clarity depth table price                  x     y     z
   <dbl> <ord>    <ord> <ord>   <dbl> <dbl> <chr>              <dbl> <dbl> <dbl>
 1  0.23 Meh      blue  SI2      61.5    55 Still Can't Afford  3.95  3.98  2.43
 2  0.21 Sparkly  blue  SI1      59.8    61 Still Can't Afford  3.89  3.84  2.31
 3  0.23 Icky     blue  VS1      56.9    65 Still Can't Afford  4.05  4.07  2.31
 4  0.29 Sparkly  I     VS2      62.4    58 Still Can't Afford  4.2   4.23  2.63
 5  0.31 Icky     J     SI2      63.3    58 Still Can't Afford  4.34  4.35  2.75
 6  0.24 Okay-ish J     VVS2     62.8    57 Still Can't Afford  3.94  3.96  2.48
 7  0.24 Okay-ish I     VVS1     62.3    57 Still Can't Afford  3.95  3.98  2.47
 8  0.26 Okay-ish H     SI1      61.9    55 Still Can't Afford  4.07  4.11  2.53
 9  0.22 Gross    blue  VS2      65.1    61 Still Can't Afford  3.87  3.78  2.49
10  0.23 Okay-ish H     VS1      59.4    61 Still Can't Afford  4     4.05  2.39
# ℹ 53,930 more rows

Use “case_when” for multiple conditions at once. Note the syntax is different. The condition is on the left side of the ~ and if TRUE the values will be replaced by the right side of the ~. The final arugment “TRUE” specifies that if a value did not meet any of the conditions above, then replace it with whatever is right of the final ~.

diamonds2 |> 
  mutate(price = case_when(
  price < quantile(price, probs = 0.33) ~ "FREE",
  price < quantile(price, probs = 0.66) ~ "BUY NOW",
  price < quantile(price, probs = 1) ~ "SELL NOW",
  TRUE ~ "NA"))

# A tibble: 53,940 × 10
   carat cut      color clarity depth table price     x     y     z
   <dbl> <ord>    <ord> <ord>   <dbl> <dbl> <chr> <dbl> <dbl> <dbl>
 1  0.23 Meh      blue  SI2      61.5    55 FREE   3.95  3.98  2.43
 2  0.21 Sparkly  blue  SI1      59.8    61 FREE   3.89  3.84  2.31
 3  0.23 Icky     blue  VS1      56.9    65 FREE   4.05  4.07  2.31
 4  0.29 Sparkly  I     VS2      62.4    58 FREE   4.2   4.23  2.63
 5  0.31 Icky     J     SI2      63.3    58 FREE   4.34  4.35  2.75
 6  0.24 Okay-ish J     VVS2     62.8    57 FREE   3.94  3.96  2.48
 7  0.24 Okay-ish I     VVS1     62.3    57 FREE   3.95  3.98  2.47
 8  0.26 Okay-ish H     SI1      61.9    55 FREE   4.07  4.11  2.53
 9  0.22 Gross    blue  VS2      65.1    61 FREE   3.87  3.78  2.49
10  0.23 Okay-ish H     VS1      59.4    61 FREE   4     4.05  2.39
# ℹ 53,930 more rows

7.8 Applying changes across a dataset

# You can use a for loop for monotonous tasks like replacing every value with SPAM
for (i in seq_along(diamonds2)) {
  diamonds2[[i]] <- paste("SPAM")
}

diamonds2

# A tibble: 53,940 × 10
   carat cut   color clarity depth table price x     y     z    
   <chr> <chr> <chr> <chr>   <chr> <chr> <chr> <chr> <chr> <chr>
 1 SPAM  SPAM  SPAM  SPAM    SPAM  SPAM  SPAM  SPAM  SPAM  SPAM 
 2 SPAM  SPAM  SPAM  SPAM    SPAM  SPAM  SPAM  SPAM  SPAM  SPAM 
 3 SPAM  SPAM  SPAM  SPAM    SPAM  SPAM  SPAM  SPAM  SPAM  SPAM 
 4 SPAM  SPAM  SPAM  SPAM    SPAM  SPAM  SPAM  SPAM  SPAM  SPAM 
 5 SPAM  SPAM  SPAM  SPAM    SPAM  SPAM  SPAM  SPAM  SPAM  SPAM 
 6 SPAM  SPAM  SPAM  SPAM    SPAM  SPAM  SPAM  SPAM  SPAM  SPAM 
 7 SPAM  SPAM  SPAM  SPAM    SPAM  SPAM  SPAM  SPAM  SPAM  SPAM 
 8 SPAM  SPAM  SPAM  SPAM    SPAM  SPAM  SPAM  SPAM  SPAM  SPAM 
 9 SPAM  SPAM  SPAM  SPAM    SPAM  SPAM  SPAM  SPAM  SPAM  SPAM 
10 SPAM  SPAM  SPAM  SPAM    SPAM  SPAM  SPAM  SPAM  SPAM  SPAM 
# ℹ 53,930 more rows

# You can also use maps in a similar way, turning every value lower case
map_df(diamonds2, tolower)

# A tibble: 53,940 × 10
   carat cut   color clarity depth table price x     y     z    
   <chr> <chr> <chr> <chr>   <chr> <chr> <chr> <chr> <chr> <chr>
 1 spam  spam  spam  spam    spam  spam  spam  spam  spam  spam 
 2 spam  spam  spam  spam    spam  spam  spam  spam  spam  spam 
 3 spam  spam  spam  spam    spam  spam  spam  spam  spam  spam 
 4 spam  spam  spam  spam    spam  spam  spam  spam  spam  spam 
 5 spam  spam  spam  spam    spam  spam  spam  spam  spam  spam 
 6 spam  spam  spam  spam    spam  spam  spam  spam  spam  spam 
 7 spam  spam  spam  spam    spam  spam  spam  spam  spam  spam 
 8 spam  spam  spam  spam    spam  spam  spam  spam  spam  spam 
 9 spam  spam  spam  spam    spam  spam  spam  spam  spam  spam 
10 spam  spam  spam  spam    spam  spam  spam  spam  spam  spam 
# ℹ 53,930 more rows
…
Select which columns to pivot longer with “cols”. The names of those columns will then go into a new column specified under “names_to”. The values within the old columns will go into their own new column specified with “values_to”.

stocks <- stocks |> 
  pivot_longer(cols = c(X, Y, Z),
               names_to = "stonks",
               values_to = "price")

stocks

# A tibble: 30 × 3
   time       stonks   price
   <date>     <chr>    <dbl>
 1 2009-01-01 X       0.833 
 2 2009-01-01 Y       0.675 
 3 2009-01-01 Z      -3.33  
 4 2009-01-02 X       0.437 
 5 2009-01-02 Y       3.25  
 6 2009-01-02 Z       1.49  
 7 2009-01-03 X       0.0695
 8 2009-01-03 Y      -1.35  
 9 2009-01-03 Z      -5.07  
10 2009-01-04 X       1.23  
# ℹ 20 more rows
…
